################################################################
----------------------------------------------------------------
In zxsp, do a gif capture by hitting Cmd-Alt-P to start and again to stop
The gif goes to the desktop
convert the gif to a movie using online converter:
    https://ezgif.com/gif-to-mp4/
upload the movie to youtube.