################################################################
What is it?
----------------------------------------------------------------
Looks like a quick, non-functioning attempt at passing the game under c++